{
    "KPlugin": {
        "Description": "This plugin adds support for \"do not track\".",
        "Description[ar]": "تُضيف هذه الملحقة دعم ”عدم التّعقّب“.",
        "Description[az]": "Bu əlavə, \"do not track\" (izləməyin) dəstəyini əlavə edir.",
        "Description[bg]": "Този плъгин добавя поддръжка за \"do not track\".",
        "Description[ca@valencia]": "Este connector afig suport per a «no vull ser seguit».",
        "Description[ca]": "Aquest connector afegeix suport per a «no vull ser seguit».",
        "Description[de]": "Dieses Modul fügt die Unterstützung von „do not track“ hinzu.",
        "Description[en_GB]": "This plugin adds support for \"do not track\".",
        "Description[eo]": "Ĉi tiu kromaĵo aldonas subtenon por \"ne spuri\".",
        "Description[es]": "Este complemento implementa el uso de «no rastrear».",
        "Description[et]": "See plugin lisab jälgimise vältimise toetuse.",
        "Description[eu]": "Plugin horrek \"ez egin jarraipenik\" euskarria gehitzen du.",
        "Description[fi]": "Tämä liitännäinen lisää ”älä jäljitä” -tuen.",
        "Description[fr]": "Ce module apporte la prise en charge du mode « Ne pas pister »",
        "Description[gl]": "Este complemento engade a funcionalidade para evitar o seguimento por parte de terceiros.",
        "Description[ia]": "Iste plugin adde supporto per \"Non traciar\".",
        "Description[it]": "Questa estensione aggiunge il supporto per il blocco del tracciamento («Do not track»).",
        "Description[ka]": "ეს დამატება ამატებს მხარდაჭერას ფუნქციისთვის \"დევნების გამორთვა\".",
        "Description[ko]": "이 플러그인은 \"추적하지 않음\" 지원을 제공합니다.",
        "Description[nl]": "Deze plug-in voegt ondersteuning toe voor \"do not track\".",
        "Description[pl]": "Ta wtyczka wprowadza obsługę \"nie śledź\".",
        "Description[pt]": "Este 'plugin' adiciona o suporte para \"não registar\".",
        "Description[pt_BR]": "Este plugin adiciona suporte para \"não rastrear\".",
        "Description[ru]": "Этот модуль добавляет поддержку «do not track» («не отслеживать»).",
        "Description[sk]": "Tento plugin pridá podporu pre \"nesledovať\".",
        "Description[sl]": "Ta vstavek doda podporo za »Ne sledi mi«.",
        "Description[sr@ijekavian]": "Овај прикључак додаје подршку за „не прати ме“",
        "Description[sr@ijekavianlatin]": "Ovaj priključak dodaje podršku za „ne prati me“",
        "Description[sr@latin]": "Ovaj priključak dodaje podršku za „ne prati me“",
        "Description[sr]": "Овај прикључак додаје подршку за „не прати ме“",
        "Description[sv]": "Insticksprogrammet lägger till stöd för \"följ inte\".",
        "Description[tr]": "Bu eklenti, \"izleme\" için destek ekler.",
        "Description[uk]": "Цей додаток реалізує підтримку режиму «не стежити».",
        "Description[x-test]": "xxThis plugin adds support for \"do not track\".xx",
        "Description[zh_CN]": "此插件添加“请勿追踪”支持。",
        "Description[zh_TW]": "這個外掛程式提供對「不要追蹤我」的支援。",
        "EnabledByDefault": false,
        "Name": "Do Not Track",
        "Name[ar]": "عدم التّعقّب",
        "Name[az]": "İzləmək qadağandır",
        "Name[bg]": "Без проследяване",
        "Name[ca@valencia]": "No deixes rastre",
        "Name[ca]": "No deixis rastre",
        "Name[cs]": "Nesledovat",
        "Name[de]": "Nicht verfolgen",
        "Name[en_GB]": "Do Not Track",
        "Name[eo]": "Ne Spuri",
        "Name[es]": "No rastrear",
        "Name[et]": "Jälitamise vältimine",
        "Name[eu]": "Ez egin jarraipenik",
        "Name[fi]": "Älä seuraa",
        "Name[fr]": "Ne pas pister",
        "Name[gl]": "Non seguir",
        "Name[ia]": "Non traciar",
        "Name[it]": "Non tenere traccia",
        "Name[ka]": "მიდევნების აკრძალვა",
        "Name[ko]": "추적하지 않음",
        "Name[nl]": "Niet volgen",
        "Name[pl]": "Nie śledź",
        "Name[pt]": "Não Seguir",
        "Name[pt_BR]": "Não rastrear",
        "Name[ru]": "Запрет отслеживания",
        "Name[sk]": "Nesledovať",
        "Name[sl]": "Ne sledi mi",
        "Name[sr@ijekavian]": "Не прати ме",
        "Name[sr@ijekavianlatin]": "Ne prati me",
        "Name[sr@latin]": "Ne prati me",
        "Name[sr]": "Не прати ме",
        "Name[sv]": "Do Not Track",
        "Name[tr]": "İzleme",
        "Name[uk]": "Вимикання стеження",
        "Name[x-test]": "xxDo Not Trackxx",
        "Name[zh_CN]": "请勿追踪",
        "Name[zh_TW]": "不要追蹤我",
        "Version": "1.0"
    }
}
