{
    "KPlugin": {
        "Description": "This plugin allows you to check message settings before sending.",
        "Description[ar]": "تتيح لك هذه الملحقة فحص إعدادات الرّسالة قبل الإرسال.",
        "Description[az]": "Bu əlavə, sizə göndərmədən öncə məktub ayarlarını yoxlamağa imkan verir.",
        "Description[bg]": "Тази приставка ви позволява да проверявате настройките на съобщението преди изпращането му.",
        "Description[ca@valencia]": "Este connector permet comprovar les opcions de configuració del missatge abans d'enviar-lo.",
        "Description[ca]": "Aquest connector permet comprovar les opcions de configuració del missatge abans d'enviar-lo.",
        "Description[de]": "Mit diesem Modul können Sie E-Mail-Einstellungen vor dem Senden überprüfen.",
        "Description[en_GB]": "This plugin allows you to check message settings before sending.",
        "Description[eo]": "Ĉi tiu kromaĵo permesas kontroli mesaĝajn agordojn antaŭ sendi.",
        "Description[es]": "Este complemento le permite comprobar las preferencias del mensaje antes de enviarlo.",
        "Description[et]": "See plugin võimaldab kontrollida kirja seadistusi enne selle saatmist.",
        "Description[eu]": "Plugin horrek mezua bidali aurretik haren ezarpenak egiaztatzen uzten dizu.",
        "Description[fi]": "Tällä liitännäisellä voi tarkistaa viestin asetukset ennen lähetystä.",
        "Description[fr]": "Ce module permet de vérifier les paramètres du message avant de l'envoyer.",
        "Description[gl]": "Este complemento permítelle comprobar a configuración das mensaxes antes de envialas.",
        "Description[ia]": "Iste plugin te permitte verificar le preferentias de message ante inviar.",
        "Description[it]": "Questa estensione permette di controllare le impostazioni di un messaggio di posta prima di inviarlo.",
        "Description[ka]": "ეს დამატება გაგზავნამდე შეტყობინების პარამეტრების შემოწმების საშუალებას გაძლევთ.",
        "Description[ko]": "이 플러그인은 메시지를 보내기 전에 설정을 확인할 수 있도록 합니다.",
        "Description[nl]": "Deze plugin stelt u in staat de instellingen van het bericht te controleren alvorens deze te verzenden",
        "Description[pl]": "Ta wtyczka umożliwia sprawdzenie ustawień wiadomości przed jej wysłaniem",
        "Description[pt]": "Este 'plugin' permite verificar as definições do correio antes de o enviar.",
        "Description[pt_BR]": "Este plugin permite a você verificar as configurações de mensagem antes do envio.",
        "Description[ru]": "Этот модуль позволяет проверять параметры писем перед их отправкой.",
        "Description[sk]": "Tento plugin vám umožní skontrolovať nastavenia správy pred odoslaním.",
        "Description[sl]": "Ta vstavek omogoča preverjanje nastavitev sporočil pred pošiljanjem.",
        "Description[sr@ijekavian]": "Овај прикључак омогућава проверу поставки поруке пре слања",
        "Description[sr@ijekavianlatin]": "Ovaj priključak omogućava proveru postavki poruke pre slanja",
        "Description[sr@latin]": "Ovaj priključak omogućava proveru postavki poruke pre slanja",
        "Description[sr]": "Овај прикључак омогућава проверу поставки поруке пре слања",
        "Description[sv]": "Insticksprogrammet gör det möjligt att kontrollera inställningarna för brev innan de skickas.",
        "Description[tr]": "Bu eklenti, gönderimden önce ileti ayarlarınızı denetlemenize olanak verir.",
        "Description[uk]": "За допомогою цього додатка можна перевіряти параметри повідомлення перед надсиланням.",
        "Description[x-test]": "xxThis plugin allows you to check message settings before sending.xx",
        "Description[zh_CN]": "此插件允许您在发送前检查信件设置。",
        "Description[zh_TW]": "這個外掛程式讓您在送出信件之前檢查信件設定。",
        "EnabledByDefault": true,
        "Name": "Check Before Send",
        "Name[ar]": "التحقّق قبل الإرسال",
        "Name[az]": "Göndərmədən öncə təsdiqləyin",
        "Name[bg]": "Проверка преди изпращане",
        "Name[ca@valencia]": "Comprova abans d'enviar",
        "Name[ca]": "Comprova abans d'enviar",
        "Name[cs]": "Zkontrolovat před odesláním",
        "Name[de]": "Vor dem Versenden prüfen",
        "Name[en_GB]": "Check Before Send",
        "Name[eo]": "Kontroli Antaŭ Sendi",
        "Name[es]": "Comprobar antes de enviar",
        "Name[et]": "Kontroll enne saatmist",
        "Name[eu]": "Egiaztatu bidali aurretik",
        "Name[fi]": "Tarkista ennen lähetystä",
        "Name[fr]": "Vérification avant envoi",
        "Name[gl]": "Comprobar antes de enviar",
        "Name[ia]": "Verifica ante inviar",
        "Name[it]": "Verifica prima di inviare",
        "Name[ka]": "შემოწმება გაგზავნამდე",
        "Name[ko]": "보내기 전에 묻기",
        "Name[nl]": "Controle voor verzenden",
        "Name[pl]": "Sprawdzanie przed wysłaniem",
        "Name[pt]": "Verificar Antes de Enviar",
        "Name[pt_BR]": "Verificar antes de enviar",
        "Name[ru]": "Проверка перед отправкой",
        "Name[sk]": "Skontrolovať pred odoslaním",
        "Name[sl]": "Preveri pred pošiljanjem",
        "Name[sr@ijekavian]": "Провери пре слања",
        "Name[sr@ijekavianlatin]": "Proveri pre slanja",
        "Name[sr@latin]": "Proveri pre slanja",
        "Name[sr]": "Провери пре слања",
        "Name[sv]": "Kontrollera innan sändning",
        "Name[ta]": "அனுப்புமுன் சரிபார்ப்பது",
        "Name[tr]": "Göndermeden Önce Denetle",
        "Name[uk]": "Перевірка перед надсиланням",
        "Name[x-test]": "xxCheck Before Sendxx",
        "Name[zh_CN]": "发送前检查",
        "Name[zh_TW]": "送出前檢查",
        "Version": "1.0"
    }
}
