{
    "KPlugin": {
        "Description": "This plugin allows you to configure scam settings.",
        "Description[ar]": "تتيح لك هذه الملحقة تهيئة إعدادات بريد الاحتيال.",
        "Description[az]": "Bu əlavə, sizə fırıldaqçılıqdan qorunma ayarlarını tənzimləməyə imkan verir.",
        "Description[bg]": "Тази приставка ви позволява да конфигурирате настройките за измами.",
        "Description[ca@valencia]": "Este connector permet configurar les opcions de configuració de la suplantació.",
        "Description[ca]": "Aquest connector permet configurar les opcions de configuració de la suplantació.",
        "Description[de]": "Mit diesem Modul können Sie das Verhalten bei Betrugsversuchen einrichten.",
        "Description[en_GB]": "This plugin allows you to configure scam settings.",
        "Description[eo]": "Ĉi tiu kromaĵo permesas al vi agordi fraŭdajn agordojn.",
        "Description[es]": "Este complemento le permite configurar las preferencias contra las estafas.",
        "Description[eu]": "Plugin horrek iruzurrerako ezarpenak konfiguratzen uzten dizu.",
        "Description[fi]": "Tällä liitännäisellä voi muuttaa huijauksentunnistuksen asetuksia.",
        "Description[fr]": "Ce module externe vous permet de configurer les paramètres de fraude.",
        "Description[gl]": "Este complemento permítelle configurar as estafas.",
        "Description[ia]": "Iste plugin te permitte configurar preferentias de scam.",
        "Description[it]": "Questa estensione ti permette di configurare le impostazioni anti-truffa.",
        "Description[ka]": "ეს დამატება ფიშინგთან ბრძოლის მორგების საშუალებას გაძლევთ.",
        "Description[ko]": "이 플러그인은 사기 설정을 설정합니다.",
        "Description[nl]": "Deze plug-in stelt u in staat om scaminstellingen te configureren.",
        "Description[pl]": "Ta wtyczka umożliwia nadawanie ustawień katalogom oszustw.",
        "Description[pt]": "Este 'plugin' permite-lhe configurar as definições de detecção de burlas.",
        "Description[pt_BR]": "Este plugin permite a você fazer as configurações de fraude.",
        "Description[ru]": "Этот модуль позволяет настроить параметры фишинга.",
        "Description[sl]": "Ta vstavek omogoča, da nastavite scam.",
        "Description[sv]": "Insticksprogrammet gör det möjligt att anpassa bedrägeri-inställningar.",
        "Description[tr]": "Bu eklenti, aldatma ayarlarını yapılandırmanıza olanak verir.",
        "Description[uk]": "За допомогою цього додатка можна налаштувати параметри скаму.",
        "Description[x-test]": "xxThis plugin allows you to configure scam settings.xx",
        "Description[zh_CN]": "此插件能让您调整垃圾邮件设置。",
        "Description[zh_TW]": "這個外掛程式讓您設定垃圾信選項。",
        "Name": "Scam Settings",
        "Name[ar]": "إعدادات بريد الاحتيال",
        "Name[az]": "Fırıldaqçılıqdan qorunma ayarları",
        "Name[bg]": "Настройки на скам",
        "Name[ca@valencia]": "Configureu la suplantació",
        "Name[ca]": "Configuració de la suplantació",
        "Name[de]": "Betrugseinstellungen",
        "Name[en_GB]": "Scam Settings",
        "Name[eo]": "Fraŭdaj Agordoj",
        "Name[es]": "Preferencias contra estafas",
        "Name[eu]": "Iruzurren ezarpenak",
        "Name[fi]": "Huijauksentunnistuksen asetukset",
        "Name[fr]": "Configuration de fraude",
        "Name[gl]": "Configuración de estafas",
        "Name[ia]": "Preferentias de scam",
        "Name[it]": "Impostazioni anti-truffa",
        "Name[ka]": "ფიშინგის მორგება",
        "Name[ko]": "사기 설정",
        "Name[nl]": "Scaminstellingen",
        "Name[pl]": "Ustawienia oszustw",
        "Name[pt]": "Configuração de Burlas",
        "Name[pt_BR]": "Configurações de fraude",
        "Name[ru]": "Параметры фишинга",
        "Name[sl]": "Nastavitve za scam",
        "Name[sv]": "Bedrägeri-inställningar",
        "Name[tr]": "Aldatma Ayarları",
        "Name[uk]": "Параметри скаму",
        "Name[x-test]": "xxScam Settingsxx",
        "Name[zh_CN]": "垃圾邮件设置",
        "Name[zh_TW]": "垃圾信設定",
        "Version": "1.0"
    },
    "X-KDE-MessageViewer-Configure-Order": "100"
}
